C:\xampp\htdocs\shoesstore\src\main\java\com\ana\shoesstore\dao\persona\PersonaDao.java
C:\xampp\htdocs\shoesstore\src\main\java\com\ana\shoesstore\service\impl\persona\PersonaServiceImpl.java
C:\xampp\htdocs\shoesstore\src\main\java\com\ana\shoesstore\config\WebInitializer.java
C:\xampp\htdocs\shoesstore\src\main\java\com\ana\shoesstore\controller\DefaultController.java
C:\xampp\htdocs\shoesstore\src\main\java\com\ana\shoesstore\dao\AbstractDao.java
C:\xampp\htdocs\shoesstore\src\main\java\com\ana\shoesstore\dao\impl\persona\PersonaDaoImpl.java
C:\xampp\htdocs\shoesstore\src\main\java\com\ana\shoesstore\dto\persona\PersonaDto.java
C:\xampp\htdocs\shoesstore\src\main\java\com\ana\shoesstore\service\persona\PersonaService.java
C:\xampp\htdocs\shoesstore\src\main\java\com\ana\shoesstore\config\Config.java
C:\xampp\htdocs\shoesstore\src\main\java\com\ana\shoesstore\config\HibernateConfiguration.java
